<svg width="384" height="512" viewBox="0 0 384 512" fill="none" xmlns="http://www.w3.org/2000/svg">
<path d="M215.7 499.2C267 435 384 279.4 384 192C384 86 298 0 192 0C86 0 0 86 0 192C0 279.4 117 435 168.3 499.2C180.6 514.5 203.4 514.5 215.7 499.2ZM192 256C156.7 256 128 227.3 128 192C128 156.7 156.7 128 192 128C227.3 128 256 156.7 256 192C256 227.3 227.3 256 192 256Z" fill="url(#paint0_linear_413_3478)"/>
<defs>
<linearGradient id="paint0_linear_413_3478" x1="192" y1="0" x2="192" y2="510.675" gradientUnits="userSpaceOnUse">
<stop stop-color="#4747FF"/>
<stop offset="1" stop-color="#16EA9E"/>
</linearGradient>
</defs>
</svg>
