<svg width="512" height="512" viewBox="0 0 512 512" fill="none" xmlns="http://www.w3.org/2000/svg">
<g clip-path="url(#clip0_7_53)">
<path d="M498.1 5.60001C508.2 12.6 513.5 24.7 511.6 36.8L447.6 452.8C446.1 462.5 440.2 471 431.6 475.8C423 480.6 412.7 481.2 403.6 477.4L277.3 424.9L237.2 499.4C232 509.1 220.9 514 210.2 511.3C199.5 508.6 192 499 192 488V392C192 386.7 193.8 381.5 197.1 377.3L362.4 164.7C364.9 157.6 355.9 150.4 349.4 156.3L170.4 318.2L138.4 347.1C129.2 355.4 116.1 357.7 104.6 352.9L19.6 317.5C8.39998 312.8 0.799978 302.2 0.0999785 290C-0.600022 277.8 5.59998 266.3 16.2 260.2L464.2 4.20001C474.9 -1.89999 488.1 -1.29999 498.2 5.60001H498.1Z" fill="url(#paint0_linear_7_53)"/>
</g>
<defs>
<linearGradient id="paint0_linear_7_53" x1="256.014" y1="-0.0038147" x2="256.014" y2="512.036" gradientUnits="userSpaceOnUse">
<stop stop-color="#4747FF"/>
<stop offset="1" stop-color="#16EA9E"/>
</linearGradient>
<clipPath id="clip0_7_53">
<rect width="512" height="512" fill="white"/>
</clipPath>
</defs>
</svg>
